<svg width="154" height="154" viewBox="0 0 154 154" fill="none" xmlns="http://www.w3.org/2000/svg">
<path d="M151.744 77C151.744 84.7357 144.444 91.2225 142.18 98.2026C139.834 105.437 141.85 114.965 137.473 120.986C133.051 127.068 123.347 128.072 117.272 132.498C111.257 136.881 107.329 145.835 100.103 148.184C93.1303 150.45 84.7271 145.592 77 145.592C69.2729 145.592 60.8698 150.45 53.8974 148.184C46.671 145.835 42.7427 136.881 36.7277 132.498C30.6526 128.072 20.9486 127.068 16.5273 120.986C12.1498 114.965 14.1661 105.437 11.8198 98.2027C9.55585 91.2225 2.25586 84.7357 2.25586 77C2.25586 69.2643 9.55584 62.7775 11.8197 55.7974C14.1661 48.5629 12.1498 39.0353 16.5273 33.0136C20.9486 26.9317 30.6526 25.928 36.7277 21.5018C42.7427 17.1194 46.6709 8.1653 53.8973 5.81631C60.8697 3.54988 69.2729 8.40819 77 8.40819C84.7272 8.40819 93.1302 3.54986 100.103 5.81628C107.329 8.16526 111.257 17.1193 117.272 21.5017C123.347 25.9279 133.051 26.9317 137.473 33.0136C141.85 39.0352 139.834 48.5629 142.18 55.7973C144.444 62.7775 151.744 69.2643 151.744 77Z" fill="#FE724C" fill-opacity="0.57"/>
<path d="M77.0001 129.7C106.073 129.7 129.641 106.105 129.641 77C129.641 47.8948 106.073 24.3004 77.0001 24.3004C47.9273 24.3004 24.3591 47.8948 24.3591 77C24.3591 106.105 47.9273 129.7 77.0001 129.7Z" fill="#FE724C"/>
<path d="M74.7024 100.205C73.9374 100.206 73.1797 100.056 72.4729 99.7633C71.7661 99.4705 71.1242 99.041 70.5839 98.4994L58.4647 86.3802C57.3736 85.2877 56.761 83.8066 56.7615 82.2625C56.762 80.7185 57.3756 79.2378 58.4674 78.146C59.5592 77.0541 61.0398 76.4405 62.5839 76.4399C64.128 76.4394 65.6091 77.0519 66.7016 78.143L74.7024 86.1436L105.345 55.5006C105.886 54.9592 106.528 54.5297 107.235 54.2366C107.942 53.9435 108.699 53.7925 109.465 53.7923C110.23 53.7921 110.988 53.9427 111.694 54.2354C112.401 54.5281 113.044 54.9573 113.585 55.4983C114.126 56.0394 114.555 56.6817 114.848 57.3887C115.14 58.0956 115.291 58.8533 115.291 59.6185C115.291 60.3837 115.14 61.1413 114.846 61.8481C114.553 62.5548 114.124 63.197 113.582 63.7377L78.821 98.4994C78.2807 99.041 77.6387 99.4705 76.9319 99.7633C76.2251 100.056 75.4674 100.206 74.7024 100.205Z" fill="#FF5A2D"/>
<path d="M65.679 100.205C64.9139 100.206 64.1563 100.056 63.4495 99.7633C62.7427 99.4705 62.1007 99.041 61.5605 98.4994L49.4412 86.3802C48.3501 85.2877 47.7375 83.8066 47.738 82.2625C47.7385 80.7185 48.3521 79.2378 49.4439 78.146C50.5357 77.0541 52.0164 76.4405 53.5605 76.4399C55.1045 76.4394 56.5856 77.0519 57.6782 78.143L65.679 86.1436L96.322 55.5006C96.8627 54.9592 97.5048 54.5297 98.2116 54.2366C98.9184 53.9435 99.676 53.7925 100.441 53.7923C101.206 53.7921 101.964 53.9427 102.671 54.2354C103.378 54.5281 104.02 54.9573 104.561 55.4983C105.102 56.0394 105.532 56.6817 105.824 57.3887C106.117 58.0956 106.268 58.8533 106.267 59.6185C106.267 60.3837 106.116 61.1413 105.823 61.8481C105.53 62.5548 105.1 63.197 104.559 63.7377L69.7976 98.4994C69.2573 99.041 68.6153 99.4705 67.9085 99.7633C67.2017 100.056 66.444 100.206 65.679 100.205Z" fill="white"/>
</svg>
